EESchema Schematic File Version 4
EELAYER 30 0
EELAYER END
$Descr A4 8268 11693 portrait
encoding utf-8
Sheet 1 1
Title ""
Date ""
Rev ""
Comp ""
Comment1 ""
Comment2 ""
Comment3 ""
Comment4 ""
$EndDescr
$Comp
L power:GND #PWR0101
U 1 1 6175F173
P 5950 3100
F 0 "#PWR0101" H 5950 2850 50  0001 C CNN
F 1 "GND" H 5955 2927 50  0000 C CNN
F 2 "" H 5950 3100 50  0001 C CNN
F 3 "" H 5950 3100 50  0001 C CNN
	1    5950 3100
	1    0    0    -1  
$EndComp
$Comp
L power:+3.3V #PWR0102
U 1 1 61760CAE
P 5950 2450
F 0 "#PWR0102" H 5950 2300 50  0001 C CNN
F 1 "+3.3V" H 5965 2623 50  0000 C CNN
F 2 "" H 5950 2450 50  0001 C CNN
F 3 "" H 5950 2450 50  0001 C CNN
	1    5950 2450
	1    0    0    -1  
$EndComp
Wire Wire Line
	6050 2550 5950 2550
Wire Wire Line
	5950 2550 5950 2450
Wire Wire Line
	6050 3050 5950 3050
Wire Wire Line
	5950 3050 5950 3100
$Comp
L ESP8266:ESP-01v090 U5
U 1 1 6143BF58
P 6900 2800
F 0 "U5" H 6900 2843 50  0000 C CNN
F 1 "ESP-01v090" H 6900 2751 50  0000 C CNN
F 2 "Connector_PinHeader_1.00mm:PinHeader_2x04_P1.00mm_Vertical_SMD" H 6900 2800 50  0001 C CNN
F 3 "" H 6900 2800 50  0001 C CNN
	1    6900 2800
	1    0    0    -1  
$EndComp
Text Notes 800  6950 0    138  ~ 0
Sensor de corriente
Wire Notes Line
	900  6650 900  4150
Wire Wire Line
	2550 2450 2550 2350
$Comp
L power:GND #PWR0103
U 1 1 614BF2F7
P 2550 2950
F 0 "#PWR0103" H 2550 2700 50  0001 C CNN
F 1 "GND" H 2555 2777 50  0000 C CNN
F 2 "" H 2550 2950 50  0001 C CNN
F 3 "" H 2550 2950 50  0001 C CNN
	1    2550 2950
	-1   0    0    -1  
$EndComp
Wire Wire Line
	2550 2950 2550 2850
$Comp
L power:+12V #PWR0104
U 1 1 614BB424
P 2550 1650
F 0 "#PWR0104" H 2550 1500 50  0001 C CNN
F 1 "+12V" H 2565 1823 50  0000 C CNN
F 2 "" H 2550 1650 50  0001 C CNN
F 3 "" H 2550 1650 50  0001 C CNN
	1    2550 1650
	-1   0    0    -1  
$EndComp
$Comp
L Transistor_FET:IRF540N Q1
U 1 1 614A9594
P 2650 2650
F 0 "Q1" H 2854 2696 50  0000 L CNN
F 1 "2N7000" H 2854 2605 50  0000 L CNN
F 2 "Package_TO_SOT_SMD:SOT-23" H 2900 2575 50  0001 L CIN
F 3 "http://www.irf.com/product-info/datasheets/data/irf540n.pdf" H 2650 2650 50  0001 L CNN
	1    2650 2650
	-1   0    0    -1  
$EndComp
$Comp
L Relay:ADW11 K1
U 1 1 614A3FAC
P 2350 2050
F 0 "K1" H 2780 2096 50  0000 L CNN
F 1 "BRD-SS-112LM" H 2780 2005 50  0000 L CNN
F 2 "Relay_THT:Relay_1P1T_NO_10x24x18.8mm_Panasonic_ADW11xxxxW_THT" H 3675 2000 50  0001 C CNN
F 3 "https://www.panasonic-electric-works.com/pew/es/downloads/ds_dw_hl_en.pdf" H 2350 2050 50  0001 C CNN
	1    2350 2050
	-1   0    0    -1  
$EndComp
Wire Wire Line
	2050 1750 2050 1700
Wire Wire Line
	2150 2350 2150 2450
Wire Notes Line
	3000 3500 900  3500
Wire Notes Line
	900  1350 3000 1350
Wire Wire Line
	2550 1750 2550 1650
Text Notes 1200 3900 0    138  ~ 0
Interruptor de \ncorriente
Wire Wire Line
	1050 2450 1050 5400
Wire Notes Line
	3000 1350 3000 3500
Wire Notes Line
	900  1350 900  3500
Wire Wire Line
	2100 6150 2100 6300
$Comp
L power:GND #PWR0107
U 1 1 61B32C75
P 2950 6300
F 0 "#PWR0107" H 2950 6050 50  0001 C CNN
F 1 "GND" H 2955 6127 50  0000 C CNN
F 2 "" H 2950 6300 50  0001 C CNN
F 3 "" H 2950 6300 50  0001 C CNN
	1    2950 6300
	1    0    0    -1  
$EndComp
$Comp
L Device:R R4
U 1 1 61B2F994
P 2950 6150
F 0 "R4" H 3020 6196 50  0000 L CNN
F 1 "8 kΩ" H 3020 6105 50  0000 L CNN
F 2 "Resistor_SMD:R_0201_0603Metric" V 2880 6150 50  0001 C CNN
F 3 "~" H 2950 6150 50  0001 C CNN
	1    2950 6150
	1    0    0    -1  
$EndComp
$Comp
L Device:R R3
U 1 1 61B2ED39
P 2950 5750
F 0 "R3" H 3020 5796 50  0000 L CNN
F 1 "2.2 kΩ" H 3020 5705 50  0000 L CNN
F 2 "Resistor_SMD:R_0201_0603Metric" V 2880 5750 50  0001 C CNN
F 3 "~" H 2950 5750 50  0001 C CNN
	1    2950 5750
	1    0    0    -1  
$EndComp
$Comp
L power:GND #PWR0108
U 1 1 61467558
P 1150 4850
F 0 "#PWR0108" H 1150 4600 50  0001 C CNN
F 1 "GND" H 1155 4677 50  0000 C CNN
F 2 "" H 1150 4850 50  0001 C CNN
F 3 "" H 1150 4850 50  0001 C CNN
	1    1150 4850
	1    0    0    -1  
$EndComp
$Comp
L power:GND #PWR0109
U 1 1 61466232
P 2350 5150
F 0 "#PWR0109" H 2350 4900 50  0001 C CNN
F 1 "GND" H 2355 4977 50  0000 C CNN
F 2 "" H 2350 5150 50  0001 C CNN
F 3 "" H 2350 5150 50  0001 C CNN
	1    2350 5150
	1    0    0    -1  
$EndComp
$Comp
L power:GND #PWR0110
U 1 1 61464A44
P 1600 6300
F 0 "#PWR0110" H 1600 6050 50  0001 C CNN
F 1 "GND" H 1605 6127 50  0000 C CNN
F 2 "" H 1600 6300 50  0001 C CNN
F 3 "" H 1600 6300 50  0001 C CNN
	1    1600 6300
	1    0    0    -1  
$EndComp
$Comp
L power:GND #PWR0111
U 1 1 61463660
P 2100 6300
F 0 "#PWR0111" H 2100 6050 50  0001 C CNN
F 1 "GND" H 2105 6127 50  0000 C CNN
F 2 "" H 2100 6300 50  0001 C CNN
F 3 "" H 2100 6300 50  0001 C CNN
	1    2100 6300
	1    0    0    -1  
$EndComp
$Comp
L Device:C C2
U 1 1 614467CE
P 2100 6000
F 0 "C2" H 2215 6046 50  0000 L CNN
F 1 "C" H 2215 5955 50  0000 L CNN
F 2 "Capacitor_SMD:C_0603_1608Metric_Pad1.08x0.95mm_HandSolder" H 2138 5850 50  0001 C CNN
F 3 "~" H 2100 6000 50  0001 C CNN
	1    2100 6000
	1    0    0    -1  
$EndComp
Wire Wire Line
	1150 4700 1150 4850
$Comp
L power:+5V #PWR0112
U 1 1 614529B1
P 1600 4450
F 0 "#PWR0112" H 1600 4300 50  0001 C CNN
F 1 "+5V" H 1615 4623 50  0000 C CNN
F 2 "" H 1600 4450 50  0001 C CNN
F 3 "" H 1600 4450 50  0001 C CNN
	1    1600 4450
	1    0    0    -1  
$EndComp
Wire Wire Line
	2000 5700 2100 5700
Wire Wire Line
	2350 5050 2350 5150
Wire Wire Line
	2350 4700 2350 4750
Wire Wire Line
	2100 4700 2350 4700
Wire Wire Line
	1600 4700 1600 4450
Connection ~ 1600 4700
Wire Wire Line
	1600 4700 1800 4700
Wire Wire Line
	1600 4700 1450 4700
Wire Wire Line
	1600 5200 1600 4700
$Comp
L Device:LED D1
U 1 1 614342DF
P 2350 4900
F 0 "D1" V 2389 4782 50  0000 R CNN
F 1 "LED" V 2298 4782 50  0000 R CNN
F 2 "LED_SMD:LED_0201_0603Metric" H 2350 4900 50  0001 C CNN
F 3 "~" H 2350 4900 50  0001 C CNN
	1    2350 4900
	0    -1   -1   0   
$EndComp
$Comp
L Device:R R1
U 1 1 61433688
P 1950 4700
F 0 "R1" V 1743 4700 50  0000 C CNN
F 1 "R" V 1834 4700 50  0000 C CNN
F 2 "Resistor_SMD:R_0201_0603Metric" V 1880 4700 50  0001 C CNN
F 3 "~" H 1950 4700 50  0001 C CNN
	1    1950 4700
	0    1    1    0   
$EndComp
$Comp
L Device:C C1
U 1 1 6143291E
P 1300 4700
F 0 "C1" V 1048 4700 50  0000 C CNN
F 1 "C" V 1139 4700 50  0000 C CNN
F 2 "Capacitor_SMD:C_0603_1608Metric_Pad1.08x0.95mm_HandSolder" H 1338 4550 50  0001 C CNN
F 3 "~" H 1300 4700 50  0001 C CNN
	1    1300 4700
	0    1    1    0   
$EndComp
$Comp
L Sensor_Current:ACS712xLCTR-20A U1
U 1 1 6142DC15
P 1600 5600
F 0 "U1" H 1600 6181 50  0000 C CNN
F 1 "ACS712xLCTR-20A" H 1600 6090 50  0000 C CNN
F 2 "Package_SO:SOIC-8_3.9x4.9mm_P1.27mm" H 1700 5250 50  0001 L CIN
F 3 "http://www.allegromicro.com/~/media/Files/Datasheets/ACS712-Datasheet.ashx?la=en" H 1600 5600 50  0001 C CNN
	1    1600 5600
	1    0    0    -1  
$EndComp
Wire Wire Line
	1600 6000 1600 6300
Wire Wire Line
	2100 5700 2100 5850
$Comp
L Device:C C15
U 1 1 615F9737
P 6400 9150
F 0 "C15" H 6515 9196 50  0000 L CNN
F 1 "C" H 6515 9105 50  0000 L CNN
F 2 "Capacitor_SMD:C_0603_1608Metric_Pad1.08x0.95mm_HandSolder" H 6438 9000 50  0001 C CNN
F 3 "~" H 6400 9150 50  0001 C CNN
	1    6400 9150
	1    0    0    -1  
$EndComp
$Comp
L power:GND #PWR0114
U 1 1 615FC1B6
P 6400 9300
F 0 "#PWR0114" H 6400 9050 50  0001 C CNN
F 1 "GND" H 6405 9127 50  0000 C CNN
F 2 "" H 6400 9300 50  0001 C CNN
F 3 "" H 6400 9300 50  0001 C CNN
	1    6400 9300
	1    0    0    -1  
$EndComp
$Comp
L power:GND #PWR0116
U 1 1 61603BE2
P 5150 9300
F 0 "#PWR0116" H 5150 9050 50  0001 C CNN
F 1 "GND" H 5155 9127 50  0000 C CNN
F 2 "" H 5150 9300 50  0001 C CNN
F 3 "" H 5150 9300 50  0001 C CNN
	1    5150 9300
	1    0    0    -1  
$EndComp
$Comp
L Device:C C9
U 1 1 61626B81
P 5150 9150
F 0 "C9" H 5265 9196 50  0000 L CNN
F 1 "C" H 5265 9105 50  0000 L CNN
F 2 "Capacitor_SMD:C_0603_1608Metric_Pad1.08x0.95mm_HandSolder" H 5188 9000 50  0001 C CNN
F 3 "~" H 5150 9150 50  0001 C CNN
	1    5150 9150
	1    0    0    -1  
$EndComp
Wire Wire Line
	5150 9000 5150 8700
$Comp
L power:GND #PWR0117
U 1 1 61629427
P 5750 9300
F 0 "#PWR0117" H 5750 9050 50  0001 C CNN
F 1 "GND" H 5755 9127 50  0000 C CNN
F 2 "" H 5750 9300 50  0001 C CNN
F 3 "" H 5750 9300 50  0001 C CNN
	1    5750 9300
	1    0    0    -1  
$EndComp
Wire Notes Line
	6900 9600 6900 8350
Text Notes 4700 9850 0    138  ~ 0
Step Down 12V a 3.3V
$Comp
L power:GND #PWR0122
U 1 1 6164BCFF
P 5750 7450
F 0 "#PWR0122" H 5750 7200 50  0001 C CNN
F 1 "GND" H 5755 7277 50  0000 C CNN
F 2 "" H 5750 7450 50  0001 C CNN
F 3 "" H 5750 7450 50  0001 C CNN
	1    5750 7450
	1    0    0    -1  
$EndComp
Text Notes 4700 8000 0    138  ~ 0
Step Down 12V a 5V
$Comp
L power:+12V #PWR0123
U 1 1 616A3960
P 4200 6350
F 0 "#PWR0123" H 4200 6200 50  0001 C CNN
F 1 "+12V" H 4215 6523 50  0000 C CNN
F 2 "" H 4200 6350 50  0001 C CNN
F 3 "" H 4200 6350 50  0001 C CNN
	1    4200 6350
	1    0    0    -1  
$EndComp
Wire Wire Line
	4200 6850 4200 6350
Wire Wire Line
	4200 6850 4200 8700
Connection ~ 4200 6850
Wire Wire Line
	2050 1700 800  1700
Wire Notes Line
	900  6650 2750 6650
Wire Notes Line
	2750 4150 2750 6650
Wire Notes Line
	900  4150 2750 4150
Wire Wire Line
	2950 5600 2000 5600
$Comp
L MCU_ST_STM32F1:STM32F103C8Tx U2
U 1 1 61B44249
P 5000 3650
F 0 "U2" H 4950 2061 50  0000 C CNN
F 1 "STM32F103C8Tx" H 4950 1970 50  0000 C CNN
F 2 "Package_QFP:LQFP-48_7x7mm_P0.5mm" H 4400 2250 50  0001 R CNN
F 3 "http://www.st.com/st-web-ui/static/active/en/resource/technical/document/datasheet/CD00161566.pdf" H 5000 3650 50  0001 C CNN
	1    5000 3650
	1    0    0    1   
$EndComp
Wire Wire Line
	2850 2650 4300 2650
Wire Wire Line
	2950 5900 2950 5950
Connection ~ 2950 5950
Wire Wire Line
	2950 5950 2950 6000
$Comp
L Device:C C10
U 1 1 61BEDDFC
P 5950 4850
F 0 "C10" H 6065 4891 50  0000 L CNN
F 1 "100 nF" H 6065 4805 43  0000 L CNN
F 2 "Capacitor_SMD:C_0603_1608Metric_Pad1.08x0.95mm_HandSolder" H 5988 4700 50  0001 C CNN
F 3 "~" H 5950 4850 50  0001 C CNN
	1    5950 4850
	1    0    0    -1  
$EndComp
$Comp
L Device:C C12
U 1 1 61BF14E4
P 6400 4850
F 0 "C12" H 6515 4891 50  0000 L CNN
F 1 "100 nF" H 6515 4805 43  0000 L CNN
F 2 "Capacitor_SMD:C_0603_1608Metric_Pad1.08x0.95mm_HandSolder" H 6438 4700 50  0001 C CNN
F 3 "~" H 6400 4850 50  0001 C CNN
	1    6400 4850
	1    0    0    -1  
$EndComp
$Comp
L Device:C C16
U 1 1 61BF5B6C
P 6850 4850
F 0 "C16" H 6965 4891 50  0000 L CNN
F 1 "100 nF" H 6965 4805 43  0000 L CNN
F 2 "Capacitor_SMD:C_0603_1608Metric_Pad1.08x0.95mm_HandSolder" H 6888 4700 50  0001 C CNN
F 3 "~" H 6850 4850 50  0001 C CNN
	1    6850 4850
	1    0    0    -1  
$EndComp
$Comp
L Device:C C11
U 1 1 61BF7AA6
P 5950 5450
F 0 "C11" H 6065 5491 50  0000 L CNN
F 1 "100 nF" H 6065 5405 43  0000 L CNN
F 2 "Capacitor_SMD:C_0603_1608Metric_Pad1.08x0.95mm_HandSolder" H 5988 5300 50  0001 C CNN
F 3 "~" H 5950 5450 50  0001 C CNN
	1    5950 5450
	1    0    0    -1  
$EndComp
$Comp
L Device:C C13
U 1 1 61BF99C2
P 6400 5450
F 0 "C13" H 6515 5491 50  0000 L CNN
F 1 "1 uF" H 6515 5405 43  0000 L CNN
F 2 "Capacitor_SMD:CP_Elec_3x5.3" H 6438 5300 50  0001 C CNN
F 3 "~" H 6400 5450 50  0001 C CNN
	1    6400 5450
	1    0    0    -1  
$EndComp
$Comp
L Device:C C17
U 1 1 61C077AF
P 7300 4850
F 0 "C17" H 7415 4891 50  0000 L CNN
F 1 "1 uF" H 7415 4805 43  0000 L CNN
F 2 "Capacitor_SMD:CP_Elec_3x5.3" H 7338 4700 50  0001 C CNN
F 3 "~" H 7300 4850 50  0001 C CNN
	1    7300 4850
	1    0    0    -1  
$EndComp
Wire Wire Line
	5950 5000 6400 5000
Wire Wire Line
	6400 5000 6850 5000
Connection ~ 6400 5000
Wire Wire Line
	7300 5000 6850 5000
Connection ~ 6850 5000
$Comp
L power:GND #PWR0124
U 1 1 61C19A43
P 5950 5000
F 0 "#PWR0124" H 5950 4750 50  0001 C CNN
F 1 "GND" H 5955 4827 50  0000 C CNN
F 2 "" H 5950 5000 50  0001 C CNN
F 3 "" H 5950 5000 50  0001 C CNN
	1    5950 5000
	1    0    0    -1  
$EndComp
Wire Wire Line
	5600 3850 5600 5950
Wire Wire Line
	2950 5950 5600 5950
Wire Wire Line
	7300 4700 6850 4700
Wire Wire Line
	6400 4700 5950 4700
Wire Wire Line
	6400 4700 6850 4700
Connection ~ 6400 4700
Connection ~ 6850 4700
$Comp
L power:+3.3V #PWR0125
U 1 1 61C68054
P 7300 4700
F 0 "#PWR0125" H 7300 4550 50  0001 C CNN
F 1 "+3.3V" H 7315 4873 50  0000 C CNN
F 2 "" H 7300 4700 50  0001 C CNN
F 3 "" H 7300 4700 50  0001 C CNN
	1    7300 4700
	1    0    0    -1  
$EndComp
Connection ~ 7300 4700
Text Label 5950 4700 0    50   ~ 0
VDD
Text Label 4800 5300 1    50   ~ 0
VDD
Wire Wire Line
	4800 5150 4800 5300
Wire Wire Line
	4900 5150 4900 5300
Wire Wire Line
	4900 5300 4800 5300
Wire Wire Line
	5000 5150 5000 5300
Wire Wire Line
	5000 5300 4900 5300
Connection ~ 4900 5300
Wire Wire Line
	5100 5150 5100 5300
Wire Wire Line
	5100 5300 5000 5300
Connection ~ 5000 5300
Wire Wire Line
	5950 5600 6400 5600
$Comp
L power:GND #PWR0126
U 1 1 61CACA6F
P 5950 5600
F 0 "#PWR0126" H 5950 5350 50  0001 C CNN
F 1 "GND" H 5955 5427 50  0000 C CNN
F 2 "" H 5950 5600 50  0001 C CNN
F 3 "" H 5950 5600 50  0001 C CNN
	1    5950 5600
	1    0    0    -1  
$EndComp
Connection ~ 5950 5000
Wire Wire Line
	6400 5300 5950 5300
Text Label 6400 5300 0    50   ~ 0
VDD
Text Label 5200 5150 0    50   ~ 0
VDDA
Text Label 5950 5300 0    50   ~ 0
VDDA
$Comp
L power:GND #PWR0127
U 1 1 61CDFCE5
P 4550 2000
F 0 "#PWR0127" H 4550 1750 50  0001 C CNN
F 1 "GND" H 4555 1827 50  0000 C CNN
F 2 "" H 4550 2000 50  0001 C CNN
F 3 "" H 4550 2000 50  0001 C CNN
	1    4550 2000
	1    0    0    -1  
$EndComp
Wire Wire Line
	4800 2150 4800 2000
Wire Wire Line
	4800 2000 4550 2000
Wire Wire Line
	5100 2150 5100 2000
Wire Wire Line
	5100 2000 5000 2000
Connection ~ 4800 2000
Wire Wire Line
	4900 2150 4900 2000
Connection ~ 4900 2000
Wire Wire Line
	4900 2000 4800 2000
Wire Wire Line
	5000 2150 5000 2000
Connection ~ 5000 2000
Wire Wire Line
	5000 2000 4900 2000
$Comp
L Device:C C7
U 1 1 61D1AFCC
P 4150 5100
F 0 "C7" H 4265 5141 50  0000 L CNN
F 1 "100 nF" H 4265 5055 43  0000 L CNN
F 2 "Capacitor_SMD:C_0603_1608Metric_Pad1.08x0.95mm_HandSolder" H 4188 4950 50  0001 C CNN
F 3 "~" H 4150 5100 50  0001 C CNN
	1    4150 5100
	1    0    0    -1  
$EndComp
Wire Wire Line
	4150 5250 4150 5350
$Comp
L power:GND #PWR0128
U 1 1 61D3E17B
P 4150 5350
F 0 "#PWR0128" H 4150 5100 50  0001 C CNN
F 1 "GND" H 4155 5177 50  0000 C CNN
F 2 "" H 4150 5350 50  0001 C CNN
F 3 "" H 4150 5350 50  0001 C CNN
	1    4150 5350
	1    0    0    -1  
$EndComp
Connection ~ 4150 5350
$Comp
L Device:C C4
U 1 1 61D8FBD8
P 3050 4250
F 0 "C4" V 3302 4250 50  0000 C CNN
F 1 "20 pF" V 3211 4250 50  0000 C CNN
F 2 "Capacitor_SMD:C_0603_1608Metric_Pad1.08x0.95mm_HandSolder" H 3088 4100 50  0001 C CNN
F 3 "~" H 3050 4250 50  0001 C CNN
	1    3050 4250
	0    -1   -1   0   
$EndComp
Wire Wire Line
	2850 4450 2850 4250
$Comp
L power:GND #PWR0129
U 1 1 61DB81C0
P 2850 4450
F 0 "#PWR0129" H 2850 4200 50  0001 C CNN
F 1 "GND" H 2855 4277 50  0000 C CNN
F 2 "" H 2850 4450 50  0001 C CNN
F 3 "" H 2850 4450 50  0001 C CNN
	1    2850 4450
	1    0    0    -1  
$EndComp
$Comp
L Device:Crystal_Small HSE1
U 1 1 61D5CF25
P 3550 4350
F 0 "HSE1" V 3832 4262 50  0000 L CNN
F 1 "8 MHz" V 3741 4262 50  0000 C CNN
F 2 "Crystal:Crystal_SMD_HC49-SD" H 3550 4350 50  0001 C CNN
F 3 "~" H 3550 4350 50  0001 C CNN
	1    3550 4350
	0    -1   -1   0   
$EndComp
$Comp
L Device:C C3
U 1 1 61DDD45B
P 3050 3750
F 0 "C3" V 3302 3750 50  0000 C CNN
F 1 "10 pF" V 3211 3750 50  0000 C CNN
F 2 "Capacitor_SMD:C_0603_1608Metric_Pad1.08x0.95mm_HandSolder" H 3088 3600 50  0001 C CNN
F 3 "~" H 3050 3750 50  0001 C CNN
	1    3050 3750
	0    -1   -1   0   
$EndComp
$Comp
L Device:C C5
U 1 1 61DDD461
P 3350 3950
F 0 "C5" V 3602 3950 50  0000 C CNN
F 1 "10 pF" V 3511 3950 50  0000 C CNN
F 2 "Capacitor_SMD:C_0603_1608Metric_Pad1.08x0.95mm_HandSolder" H 3388 3800 50  0001 C CNN
F 3 "~" H 3350 3950 50  0001 C CNN
	1    3350 3950
	0    -1   -1   0   
$EndComp
Connection ~ 3550 3750
Wire Wire Line
	2850 3950 2850 3750
$Comp
L power:GND #PWR0130
U 1 1 61DDD46E
P 2850 3950
F 0 "#PWR0130" H 2850 3700 50  0001 C CNN
F 1 "GND" H 2855 3777 50  0000 C CNN
F 2 "" H 2850 3950 50  0001 C CNN
F 3 "" H 2850 3950 50  0001 C CNN
	1    2850 3950
	1    0    0    -1  
$EndComp
$Comp
L Device:R R5
U 1 1 61DDD475
P 3900 3850
F 0 "R5" H 3970 3896 50  0000 L CNN
F 1 "R" H 3970 3805 50  0000 L CNN
F 2 "Resistor_SMD:R_0201_0603Metric" V 3830 3850 50  0001 C CNN
F 3 "~" H 3900 3850 50  0001 C CNN
	1    3900 3850
	0    -1   1    0   
$EndComp
$Comp
L Device:Crystal_Small LSE1
U 1 1 61DDD47B
P 3550 3850
F 0 "LSE1" V 3832 3762 50  0000 L CNN
F 1 "32 kHz" V 3741 3762 50  0000 C CNN
F 2 "Crystal:Crystal_SMD_SeikoEpson_MC306-4Pin_8.0x3.2mm" H 3550 3850 50  0001 C CNN
F 3 "~" H 3550 3850 50  0001 C CNN
	1    3550 3850
	0    -1   -1   0   
$EndComp
Wire Wire Line
	3550 3750 3750 3750
Wire Wire Line
	3750 3850 3750 3750
$Comp
L Device:C C6
U 1 1 61D9B2E0
P 3400 4450
F 0 "C6" V 3652 4450 50  0000 C CNN
F 1 "20 pF" V 3561 4450 50  0000 C CNN
F 2 "Capacitor_SMD:C_0603_1608Metric_Pad1.08x0.95mm_HandSolder" H 3438 4300 50  0001 C CNN
F 3 "~" H 3400 4450 50  0001 C CNN
	1    3400 4450
	0    -1   -1   0   
$EndComp
Wire Wire Line
	3200 3750 3550 3750
Connection ~ 3550 4450
Wire Wire Line
	3200 4250 3550 4250
Wire Wire Line
	2900 3750 2850 3750
Wire Wire Line
	2850 3950 3200 3950
Connection ~ 2850 3950
Wire Wire Line
	2900 4250 2850 4250
Wire Wire Line
	2850 4450 3250 4450
Connection ~ 2850 4450
Wire Wire Line
	4300 4950 4150 4950
Connection ~ 4150 4950
$Comp
L Device:R R6
U 1 1 61D6FBD0
P 3900 4250
F 0 "R6" H 3970 4296 50  0000 L CNN
F 1 "R" H 3970 4205 50  0000 L CNN
F 2 "Resistor_SMD:R_0201_0603Metric" V 3830 4250 50  0001 C CNN
F 3 "~" H 3900 4250 50  0001 C CNN
	1    3900 4250
	0    -1   1    0   
$EndComp
$Comp
L Switch:SW_DPDT_x2 SW1
U 1 1 61E9A27F
P 3950 4750
F 0 "SW1" H 3950 4943 50  0000 C CNN
F 1 "SW_DPDT_x2" H 3950 4944 50  0001 C CNN
F 2 "Connector_PinHeader_1.00mm:PinHeader_1x03_P1.00mm_Vertical_SMD_Pin1Right" H 3950 4750 50  0001 C CNN
F 3 "~" H 3950 4750 50  0001 C CNN
	1    3950 4750
	-1   0    0    -1  
$EndComp
Wire Wire Line
	4100 4550 4300 4550
Wire Wire Line
	4300 4450 4150 4450
Wire Wire Line
	4150 4450 4150 4250
Wire Wire Line
	4100 4150 4100 3950
Wire Wire Line
	4300 4050 4150 4050
Wire Wire Line
	4150 4050 4150 3850
Wire Wire Line
	4100 4150 4300 4150
Wire Wire Line
	3750 4250 3550 4250
Connection ~ 3550 4250
Wire Wire Line
	4150 4250 4050 4250
Wire Wire Line
	3550 3950 4100 3950
Wire Wire Line
	4150 3850 4050 3850
Wire Wire Line
	4100 4450 4100 4550
Wire Wire Line
	3550 4450 4100 4450
Wire Wire Line
	4300 4750 4150 4750
$Comp
L power:GND #PWR0131
U 1 1 61F5629D
P 3750 4650
F 0 "#PWR0131" H 3750 4400 50  0001 C CNN
F 1 "GND" H 3755 4477 50  0000 C CNN
F 2 "" H 3750 4650 50  0001 C CNN
F 3 "" H 3750 4650 50  0001 C CNN
	1    3750 4650
	0    1    -1   0   
$EndComp
Text Label 3750 4850 2    50   ~ 0
VDD
Wire Wire Line
	5600 2650 6050 2650
Wire Wire Line
	5600 2750 6050 2750
Wire Wire Line
	5600 2850 6050 2850
Wire Wire Line
	5600 2950 6050 2950
Wire Wire Line
	5600 2450 5700 2450
Wire Wire Line
	5600 2550 5750 2550
$Comp
L Connector:Screw_Terminal_01x02 J2
U 1 1 61FA547D
P 6000 1650
F 0 "J2" H 6080 1642 50  0000 L CNN
F 1 "Serial Debug" H 6080 1551 50  0000 L CNN
F 2 "Connector_PinSocket_1.00mm:PinSocket_1x02_P1.00mm_Vertical_SMD_Pin1Left" H 6000 1650 50  0001 C CNN
F 3 "~" H 6000 1650 50  0001 C CNN
	1    6000 1650
	1    0    0    -1  
$EndComp
Wire Wire Line
	5750 1750 5800 1750
Wire Wire Line
	5750 1750 5750 2550
Wire Wire Line
	5700 1650 5800 1650
Wire Wire Line
	5700 1650 5700 2450
Text Notes 5950 1900 0    50   ~ 0
SWDIO
Text Notes 5950 1550 0    50   ~ 0
SWCLCK
Wire Wire Line
	3900 6350 4200 6350
Connection ~ 4200 6350
$Comp
L power:GND #PWR0132
U 1 1 61FFD0D7
P 3900 6450
F 0 "#PWR0132" H 3900 6200 50  0001 C CNN
F 1 "GND" H 3905 6277 50  0000 C CNN
F 2 "" H 3900 6450 50  0001 C CNN
F 3 "" H 3900 6450 50  0001 C CNN
	1    3900 6450
	1    0    0    -1  
$EndComp
$Comp
L Switch:SW_Push SW2
U 1 1 620130D2
P 3800 5150
F 0 "SW2" V 3846 5102 50  0000 R CNN
F 1 "RESET" V 3755 5102 50  0000 R CNN
F 2 "Button_Switch_SMD:SW_Push_SPST_NO_Alps_SKRK" H 3800 5350 50  0001 C CNN
F 3 "~" H 3800 5350 50  0001 C CNN
	1    3800 5150
	0    -1   -1   0   
$EndComp
Wire Wire Line
	3800 5350 4150 5350
Wire Wire Line
	3800 4950 4150 4950
$Comp
L Connector:Screw_Terminal_01x02 J1
U 1 1 61FED4F1
P 3700 6350
F 0 "J1" H 3618 6567 50  0000 C CNN
F 1 "Alimentacion" H 3618 6476 50  0000 C CNN
F 2 "TerminalBlock:TerminalBlock_bornier-2_P5.08mm" H 3700 6350 50  0001 C CNN
F 3 "~" H 3700 6350 50  0001 C CNN
	1    3700 6350
	-1   0    0    -1  
$EndComp
Wire Wire Line
	3500 3950 3550 3950
Connection ~ 3550 3950
$Comp
L power:+3.3V #PWR0133
U 1 1 61C30211
P 7000 8700
F 0 "#PWR0133" H 7000 8550 50  0001 C CNN
F 1 "+3.3V" H 7015 8873 50  0000 C CNN
F 2 "" H 7000 8700 50  0001 C CNN
F 3 "" H 7000 8700 50  0001 C CNN
	1    7000 8700
	1    0    0    -1  
$EndComp
Text Label 7000 8700 0    47   ~ 0
+3.3V
$Comp
L power:+5V #PWR0134
U 1 1 61C5C113
P 7300 6850
F 0 "#PWR0134" H 7300 6700 50  0001 C CNN
F 1 "+5V" H 7315 7023 50  0000 C CNN
F 2 "" H 7300 6850 50  0001 C CNN
F 3 "" H 7300 6850 50  0001 C CNN
	1    7300 6850
	1    0    0    -1  
$EndComp
Text Label 7300 6850 0    47   ~ 0
+5V
$Comp
L power:GND #PWR0119
U 1 1 6164BCD7
P 6300 7450
F 0 "#PWR0119" H 6300 7200 50  0001 C CNN
F 1 "GND" H 6305 7277 50  0000 C CNN
F 2 "" H 6300 7450 50  0001 C CNN
F 3 "" H 6300 7450 50  0001 C CNN
	1    6300 7450
	1    0    0    -1  
$EndComp
$Comp
L Device:C C14
U 1 1 6164BCC5
P 6300 7300
F 0 "C14" H 6415 7346 50  0000 L CNN
F 1 "C" H 6415 7255 50  0000 L CNN
F 2 "Capacitor_SMD:C_0603_1608Metric_Pad1.08x0.95mm_HandSolder" H 6338 7150 50  0001 C CNN
F 3 "~" H 6300 7300 50  0001 C CNN
	1    6300 7300
	1    0    0    -1  
$EndComp
Wire Wire Line
	5200 7150 5200 6850
$Comp
L Device:C C8
U 1 1 6164BCF6
P 5200 7300
F 0 "C8" H 5315 7346 50  0000 L CNN
F 1 "C" H 5315 7255 50  0000 L CNN
F 2 "Capacitor_SMD:C_0603_1608Metric_Pad1.08x0.95mm_HandSolder" H 5238 7150 50  0001 C CNN
F 3 "~" H 5200 7300 50  0001 C CNN
	1    5200 7300
	1    0    0    -1  
$EndComp
$Comp
L power:GND #PWR0121
U 1 1 6164BCEE
P 5200 7450
F 0 "#PWR0121" H 5200 7200 50  0001 C CNN
F 1 "GND" H 5205 7277 50  0000 C CNN
F 2 "" H 5200 7450 50  0001 C CNN
F 3 "" H 5200 7450 50  0001 C CNN
	1    5200 7450
	1    0    0    -1  
$EndComp
$Comp
L Regulator_Linear:AP1117-33 U4
U 1 1 61CE8093
P 5750 8700
F 0 "U4" H 5750 8942 50  0000 C CNN
F 1 "AP1117-33" H 5750 8851 50  0000 C CNN
F 2 "Package_TO_SOT_SMD:TO-252-3_TabPin2" H 5750 8900 50  0001 C CNN
F 3 "http://www.diodes.com/datasheets/AP1117.pdf" H 5850 8450 50  0001 C CNN
	1    5750 8700
	1    0    0    -1  
$EndComp
Wire Wire Line
	6050 8700 6400 8700
Wire Wire Line
	5750 9000 5750 9300
Wire Wire Line
	5150 8700 5450 8700
Wire Wire Line
	6400 8700 6400 9000
Wire Wire Line
	6400 8700 7000 8700
Connection ~ 6400 8700
Wire Wire Line
	5150 8700 4200 8700
Connection ~ 5150 8700
Wire Notes Line
	6900 9600 4750 9600
Wire Notes Line
	4750 9600 4750 8350
Wire Notes Line
	4750 8350 6900 8350
$Comp
L Regulator_Linear:L7805 U3
U 1 1 61DE3580
P 5750 6850
F 0 "U3" H 5750 7092 50  0000 C CNN
F 1 "L7805" H 5750 7001 50  0000 C CNN
F 2 "Package_TO_SOT_SMD:TO-252-3_TabPin2" H 5775 6700 50  0001 L CIN
F 3 "http://www.st.com/content/ccc/resource/technical/document/datasheet/41/4f/b3/b0/12/d4/47/88/CD00000444.pdf/files/CD00000444.pdf/jcr:content/translations/en.CD00000444.pdf" H 5750 6800 50  0001 C CNN
	1    5750 6850
	1    0    0    -1  
$EndComp
Wire Wire Line
	6050 6850 6300 6850
Wire Wire Line
	6300 6850 6300 7150
Connection ~ 6300 6850
Connection ~ 5200 6850
Wire Wire Line
	5200 6850 5450 6850
Wire Wire Line
	4200 6850 5200 6850
Wire Wire Line
	6300 6850 7300 6850
Wire Notes Line
	6700 6500 6700 7750
Wire Notes Line
	6700 7750 4850 7750
Wire Notes Line
	4850 7750 4850 6500
Wire Notes Line
	6700 6500 4850 6500
Wire Wire Line
	5750 7150 5750 7450
Connection ~ 5950 5600
$Comp
L Connector:Screw_Terminal_01x02 J3
U 1 1 61B876BD
P 600 3800
F 0 "J3" H 518 4017 50  0000 C CNN
F 1 "Alimentacion Rig" H 518 3926 50  0000 C CNN
F 2 "TerminalBlock:TerminalBlock_bornier-2_P5.08mm" H 600 3800 50  0001 C CNN
F 3 "~" H 600 3800 50  0001 C CNN
	1    600  3800
	-1   0    0    -1  
$EndComp
Wire Wire Line
	1050 2450 2150 2450
Wire Wire Line
	1050 5400 1200 5400
Wire Wire Line
	800  3800 800  1700
Wire Wire Line
	800  3900 800  5800
Wire Wire Line
	800  5800 1200 5800
$EndSCHEMATC
