EESchema Schematic File Version 4
EELAYER 30 0
EELAYER END
$Descr A4 8268 11693 portrait
encoding utf-8
Sheet 1 1
Title ""
Date ""
Rev ""
Comp ""
Comment1 ""
Comment2 ""
Comment3 ""
Comment4 ""
$EndDescr
$Comp
L power:GND #PWR?
U 1 1 6175F173
P 5750 4100
F 0 "#PWR?" H 5750 3850 50  0001 C CNN
F 1 "GND" H 5755 3927 50  0000 C CNN
F 2 "" H 5750 4100 50  0001 C CNN
F 3 "" H 5750 4100 50  0001 C CNN
	1    5750 4100
	1    0    0    -1  
$EndComp
$Comp
L power:+3.3V #PWR?
U 1 1 61760CAE
P 5750 3450
F 0 "#PWR?" H 5750 3300 50  0001 C CNN
F 1 "+3.3V" H 5765 3623 50  0000 C CNN
F 2 "" H 5750 3450 50  0001 C CNN
F 3 "" H 5750 3450 50  0001 C CNN
	1    5750 3450
	1    0    0    -1  
$EndComp
Wire Wire Line
	5850 3550 5750 3550
Wire Wire Line
	5750 3550 5750 3450
Wire Wire Line
	5850 4050 5750 4050
Wire Wire Line
	5750 4050 5750 4100
$Comp
L ESP8266:ESP-01v090 U?
U 1 1 6143BF58
P 6700 3800
F 0 "U?" H 6700 3843 50  0000 C CNN
F 1 "ESP-01v090" H 6700 3751 50  0000 C CNN
F 2 "" H 6700 3800 50  0001 C CNN
F 3 "" H 6700 3800 50  0001 C CNN
	1    6700 3800
	1    0    0    -1  
$EndComp
Text Notes 800  6950 0    138  ~ 0
Sensor de corriente
Wire Notes Line
	900  6650 900  4150
Wire Wire Line
	2550 2450 2550 2350
$Comp
L power:GND #PWR?
U 1 1 614BF2F7
P 2550 3250
F 0 "#PWR?" H 2550 3000 50  0001 C CNN
F 1 "GND" H 2555 3077 50  0000 C CNN
F 2 "" H 2550 3250 50  0001 C CNN
F 3 "" H 2550 3250 50  0001 C CNN
	1    2550 3250
	-1   0    0    -1  
$EndComp
$Comp
L power:+12V #PWR?
U 1 1 614BB424
P 2550 1650
F 0 "#PWR?" H 2550 1500 50  0001 C CNN
F 1 "+12V" H 2565 1823 50  0000 C CNN
F 2 "" H 2550 1650 50  0001 C CNN
F 3 "" H 2550 1650 50  0001 C CNN
	1    2550 1650
	-1   0    0    -1  
$EndComp
$Comp
L Transistor_FET:IRF540N Q?
U 1 1 614A9594
P 2650 2650
F 0 "Q?" H 2854 2696 50  0000 L CNN
F 1 "2N7000" H 2854 2605 50  0000 L CNN
F 2 "Package_TO_SOT_THT:TO-220-3_Vertical" H 2900 2575 50  0001 L CIN
F 3 "http://www.irf.com/product-info/datasheets/data/irf540n.pdf" H 2650 2650 50  0001 L CNN
	1    2650 2650
	-1   0    0    -1  
$EndComp
$Comp
L Relay:ADW11 K?
U 1 1 614A3FAC
P 2350 2050
F 0 "K?" H 2780 2096 50  0000 L CNN
F 1 "BRD-SS-112LM" H 2780 2005 50  0000 L CNN
F 2 "Relay_THT:Relay_1P1T_NO_10x24x18.8mm_Panasonic_ADW11xxxxW_THT" H 3675 2000 50  0001 C CNN
F 3 "https://www.panasonic-electric-works.com/pew/es/downloads/ds_dw_hl_en.pdf" H 2350 2050 50  0001 C CNN
	1    2350 2050
	-1   0    0    -1  
$EndComp
Wire Wire Line
	2050 1750 2050 1700
Wire Wire Line
	2150 2350 2150 2450
Wire Notes Line
	3000 3500 900  3500
Wire Notes Line
	900  1350 3000 1350
Wire Wire Line
	2550 1750 2550 1650
Text Notes 1200 3900 0    138  ~ 0
Interruptor de \ncorriente
Wire Wire Line
	650  2450 650  5400
Wire Notes Line
	3000 1350 3000 3500
Wire Notes Line
	900  1350 900  3500
$Comp
L power:AC #PWR?
U 1 1 61722CD0
P 650 1700
F 0 "#PWR?" H 650 1600 50  0001 C CNN
F 1 "AC" H 650 1975 50  0000 C CNN
F 2 "" H 650 1700 50  0001 C CNN
F 3 "" H 650 1700 50  0001 C CNN
	1    650  1700
	1    0    0    -1  
$EndComp
$Comp
L power:GND #PWR?
U 1 1 61727BD7
P 650 6250
F 0 "#PWR?" H 650 6000 50  0001 C CNN
F 1 "GND" H 655 6077 50  0000 C CNN
F 2 "" H 650 6250 50  0001 C CNN
F 3 "" H 650 6250 50  0001 C CNN
	1    650  6250
	1    0    0    -1  
$EndComp
Wire Wire Line
	2100 6150 2100 6300
$Comp
L power:GND #PWR?
U 1 1 61B32C75
P 2950 6300
F 0 "#PWR?" H 2950 6050 50  0001 C CNN
F 1 "GND" H 2955 6127 50  0000 C CNN
F 2 "" H 2950 6300 50  0001 C CNN
F 3 "" H 2950 6300 50  0001 C CNN
	1    2950 6300
	1    0    0    -1  
$EndComp
$Comp
L Device:R R?
U 1 1 61B2F994
P 2950 6150
F 0 "R?" H 3020 6196 50  0000 L CNN
F 1 "8 kΩ" H 3020 6105 50  0000 L CNN
F 2 "" V 2880 6150 50  0001 C CNN
F 3 "~" H 2950 6150 50  0001 C CNN
	1    2950 6150
	1    0    0    -1  
$EndComp
$Comp
L Device:R R?
U 1 1 61B2ED39
P 2950 5750
F 0 "R?" H 3020 5796 50  0000 L CNN
F 1 "2.2 kΩ" H 3020 5705 50  0000 L CNN
F 2 "" V 2880 5750 50  0001 C CNN
F 3 "~" H 2950 5750 50  0001 C CNN
	1    2950 5750
	1    0    0    -1  
$EndComp
$Comp
L power:GND #PWR?
U 1 1 61467558
P 1150 4850
F 0 "#PWR?" H 1150 4600 50  0001 C CNN
F 1 "GND" H 1155 4677 50  0000 C CNN
F 2 "" H 1150 4850 50  0001 C CNN
F 3 "" H 1150 4850 50  0001 C CNN
	1    1150 4850
	1    0    0    -1  
$EndComp
$Comp
L power:GND #PWR?
U 1 1 61466232
P 2350 5150
F 0 "#PWR?" H 2350 4900 50  0001 C CNN
F 1 "GND" H 2355 4977 50  0000 C CNN
F 2 "" H 2350 5150 50  0001 C CNN
F 3 "" H 2350 5150 50  0001 C CNN
	1    2350 5150
	1    0    0    -1  
$EndComp
$Comp
L power:GND #PWR?
U 1 1 61464A44
P 1600 6300
F 0 "#PWR?" H 1600 6050 50  0001 C CNN
F 1 "GND" H 1605 6127 50  0000 C CNN
F 2 "" H 1600 6300 50  0001 C CNN
F 3 "" H 1600 6300 50  0001 C CNN
	1    1600 6300
	1    0    0    -1  
$EndComp
$Comp
L power:GND #PWR?
U 1 1 61463660
P 2100 6300
F 0 "#PWR?" H 2100 6050 50  0001 C CNN
F 1 "GND" H 2105 6127 50  0000 C CNN
F 2 "" H 2100 6300 50  0001 C CNN
F 3 "" H 2100 6300 50  0001 C CNN
	1    2100 6300
	1    0    0    -1  
$EndComp
$Comp
L Device:C C?
U 1 1 614467CE
P 2100 6000
F 0 "C?" H 2215 6046 50  0000 L CNN
F 1 "C" H 2215 5955 50  0000 L CNN
F 2 "" H 2138 5850 50  0001 C CNN
F 3 "~" H 2100 6000 50  0001 C CNN
	1    2100 6000
	1    0    0    -1  
$EndComp
Wire Wire Line
	1150 4700 1150 4850
$Comp
L power:+5V #PWR?
U 1 1 614529B1
P 1600 4450
F 0 "#PWR?" H 1600 4300 50  0001 C CNN
F 1 "+5V" H 1615 4623 50  0000 C CNN
F 2 "" H 1600 4450 50  0001 C CNN
F 3 "" H 1600 4450 50  0001 C CNN
	1    1600 4450
	1    0    0    -1  
$EndComp
Wire Wire Line
	2000 5700 2100 5700
Wire Wire Line
	2350 5050 2350 5150
Wire Wire Line
	2350 4700 2350 4750
Wire Wire Line
	2100 4700 2350 4700
Wire Wire Line
	1600 4700 1600 4450
Connection ~ 1600 4700
Wire Wire Line
	1600 4700 1800 4700
Wire Wire Line
	1600 4700 1450 4700
Wire Wire Line
	1600 5200 1600 4700
$Comp
L Device:LED D?
U 1 1 614342DF
P 2350 4900
F 0 "D?" V 2389 4782 50  0000 R CNN
F 1 "LED" V 2298 4782 50  0000 R CNN
F 2 "" H 2350 4900 50  0001 C CNN
F 3 "~" H 2350 4900 50  0001 C CNN
	1    2350 4900
	0    -1   -1   0   
$EndComp
$Comp
L Device:R R?
U 1 1 61433688
P 1950 4700
F 0 "R?" V 1743 4700 50  0000 C CNN
F 1 "R" V 1834 4700 50  0000 C CNN
F 2 "" V 1880 4700 50  0001 C CNN
F 3 "~" H 1950 4700 50  0001 C CNN
	1    1950 4700
	0    1    1    0   
$EndComp
$Comp
L Device:C C?
U 1 1 6143291E
P 1300 4700
F 0 "C?" V 1048 4700 50  0000 C CNN
F 1 "C" V 1139 4700 50  0000 C CNN
F 2 "" H 1338 4550 50  0001 C CNN
F 3 "~" H 1300 4700 50  0001 C CNN
	1    1300 4700
	0    1    1    0   
$EndComp
$Comp
L Sensor_Current:ACS712xLCTR-20A U?
U 1 1 6142DC15
P 1600 5600
F 0 "U?" H 1600 6181 50  0000 C CNN
F 1 "ACS712xLCTR-20A" H 1600 6090 50  0000 C CNN
F 2 "Package_SO:SOIC-8_3.9x4.9mm_P1.27mm" H 1700 5250 50  0001 L CIN
F 3 "http://www.allegromicro.com/~/media/Files/Datasheets/ACS712-Datasheet.ashx?la=en" H 1600 5600 50  0001 C CNN
	1    1600 5600
	1    0    0    -1  
$EndComp
Wire Wire Line
	650  5800 650  6250
Wire Wire Line
	2950 5900 2950 5950
Wire Wire Line
	2950 5950 3500 5950
Connection ~ 2950 5950
Wire Wire Line
	2950 5950 2950 6000
Wire Wire Line
	1600 6000 1600 6300
Wire Wire Line
	2100 5700 2100 5850
$Comp
L Device:C C?
U 1 1 615F9737
P 6350 8900
F 0 "C?" H 6465 8946 50  0000 L CNN
F 1 "C" H 6465 8855 50  0000 L CNN
F 2 "" H 6388 8750 50  0001 C CNN
F 3 "~" H 6350 8900 50  0001 C CNN
	1    6350 8900
	1    0    0    -1  
$EndComp
$Comp
L power:GND #PWR?
U 1 1 615FC1B6
P 6350 9050
F 0 "#PWR?" H 6350 8800 50  0001 C CNN
F 1 "GND" H 6355 8877 50  0000 C CNN
F 2 "" H 6350 9050 50  0001 C CNN
F 3 "" H 6350 9050 50  0001 C CNN
	1    6350 9050
	1    0    0    -1  
$EndComp
$Comp
L power:GND #PWR?
U 1 1 61603BE2
P 5100 9050
F 0 "#PWR?" H 5100 8800 50  0001 C CNN
F 1 "GND" H 5105 8877 50  0000 C CNN
F 2 "" H 5100 9050 50  0001 C CNN
F 3 "" H 5100 9050 50  0001 C CNN
	1    5100 9050
	1    0    0    -1  
$EndComp
$Comp
L Device:C C?
U 1 1 61626B81
P 5100 8900
F 0 "C?" H 5215 8946 50  0000 L CNN
F 1 "C" H 5215 8855 50  0000 L CNN
F 2 "" H 5138 8750 50  0001 C CNN
F 3 "~" H 5100 8900 50  0001 C CNN
	1    5100 8900
	1    0    0    -1  
$EndComp
Wire Wire Line
	5100 8750 5100 8450
$Comp
L power:GND #PWR?
U 1 1 61629427
P 5700 9050
F 0 "#PWR?" H 5700 8800 50  0001 C CNN
F 1 "GND" H 5705 8877 50  0000 C CNN
F 2 "" H 5700 9050 50  0001 C CNN
F 3 "" H 5700 9050 50  0001 C CNN
	1    5700 9050
	1    0    0    -1  
$EndComp
Text Notes 4650 9600 0    138  ~ 0
Step Down 12V a 3.3V
$Comp
L Device:C C?
U 1 1 6164BCC5
P 6250 7050
F 0 "C?" H 6365 7096 50  0000 L CNN
F 1 "C" H 6365 7005 50  0000 L CNN
F 2 "" H 6288 6900 50  0001 C CNN
F 3 "~" H 6250 7050 50  0001 C CNN
	1    6250 7050
	1    0    0    -1  
$EndComp
$Comp
L power:GND #PWR?
U 1 1 6164BCD7
P 6250 7200
F 0 "#PWR?" H 6250 6950 50  0001 C CNN
F 1 "GND" H 6255 7027 50  0000 C CNN
F 2 "" H 6250 7200 50  0001 C CNN
F 3 "" H 6250 7200 50  0001 C CNN
	1    6250 7200
	1    0    0    -1  
$EndComp
$Comp
L power:GND #PWR?
U 1 1 6164BCEE
P 5200 7200
F 0 "#PWR?" H 5200 6950 50  0001 C CNN
F 1 "GND" H 5205 7027 50  0000 C CNN
F 2 "" H 5200 7200 50  0001 C CNN
F 3 "" H 5200 7200 50  0001 C CNN
	1    5200 7200
	1    0    0    -1  
$EndComp
$Comp
L Device:C C?
U 1 1 6164BCF6
P 5200 7050
F 0 "C?" H 5315 7096 50  0000 L CNN
F 1 "C" H 5315 7005 50  0000 L CNN
F 2 "" H 5238 6900 50  0001 C CNN
F 3 "~" H 5200 7050 50  0001 C CNN
	1    5200 7050
	1    0    0    -1  
$EndComp
Wire Wire Line
	5200 6900 5200 6600
$Comp
L power:GND #PWR?
U 1 1 6164BCFF
P 5700 7200
F 0 "#PWR?" H 5700 6950 50  0001 C CNN
F 1 "GND" H 5705 7027 50  0000 C CNN
F 2 "" H 5700 7200 50  0001 C CNN
F 3 "" H 5700 7200 50  0001 C CNN
	1    5700 7200
	1    0    0    -1  
$EndComp
Text Notes 4650 7750 0    138  ~ 0
Step Down 12V a 5V
$Comp
L power:+12V #PWR?
U 1 1 616A3960
P 4150 6100
F 0 "#PWR?" H 4150 5950 50  0001 C CNN
F 1 "+12V" H 4165 6273 50  0000 C CNN
F 2 "" H 4150 6100 50  0001 C CNN
F 3 "" H 4150 6100 50  0001 C CNN
	1    4150 6100
	1    0    0    -1  
$EndComp
Text Label 7250 8450 0    47   ~ 0
+3.3V
Text Label 7250 6600 0    47   ~ 0
+5V
Wire Wire Line
	4150 6600 4150 6100
Wire Wire Line
	4150 6600 4150 8450
Connection ~ 4150 6600
$Comp
L YAAJ_BluePill_Part_Like:YAAJ_BluePill_Part_Like U?
U 1 1 61441F25
P 4800 3550
F 0 "U?" H 4800 4715 50  0000 C CNN
F 1 "YAAJ_BluePill_Part_Like" H 4800 4624 50  0000 C CNN
F 2 "" H 5500 2550 50  0001 C CNN
F 3 "" H 5500 2550 50  0001 C CNN
	1    4800 3550
	1    0    0    -1  
$EndComp
Wire Wire Line
	5850 3950 5600 3950
Wire Wire Line
	5850 3850 5600 3850
Wire Wire Line
	5600 3750 5850 3750
Wire Wire Line
	5850 3650 5600 3650
Wire Wire Line
	650  5800 1200 5800
Wire Wire Line
	650  5400 1200 5400
Wire Wire Line
	650  2450 2150 2450
Wire Wire Line
	2050 1700 650  1700
Wire Wire Line
	2850 2650 4000 2650
Wire Notes Line
	900  6650 2750 6650
Wire Notes Line
	2750 4150 2750 6650
Wire Notes Line
	900  4150 2750 4150
Wire Wire Line
	2950 5600 2000 5600
Wire Wire Line
	3500 5950 3500 2750
Wire Wire Line
	3500 2750 4000 2750
Wire Wire Line
	2550 2850 2550 3250
$Comp
L Regulator_Linear:AP1117-33 U?
U 1 1 61B69FC5
P 5700 8450
F 0 "U?" H 5700 8692 50  0000 C CNN
F 1 "AP1117-33" H 5700 8601 50  0000 C CNN
F 2 "Package_TO_SOT_SMD:SOT-223-3_TabPin2" H 5700 8650 50  0001 C CNN
F 3 "http://www.diodes.com/datasheets/AP1117.pdf" H 5800 8200 50  0001 C CNN
	1    5700 8450
	1    0    0    -1  
$EndComp
$Comp
L Regulator_Linear:L7805 U?
U 1 1 61B6E226
P 5700 6600
F 0 "U?" H 5700 6842 50  0000 C CNN
F 1 "L7805" H 5700 6751 50  0000 C CNN
F 2 "" H 5725 6450 50  0001 L CIN
F 3 "http://www.st.com/content/ccc/resource/technical/document/datasheet/41/4f/b3/b0/12/d4/47/88/CD00000444.pdf/files/CD00000444.pdf/jcr:content/translations/en.CD00000444.pdf" H 5700 6550 50  0001 C CNN
	1    5700 6600
	1    0    0    -1  
$EndComp
Wire Wire Line
	5700 8750 5700 9050
Wire Wire Line
	6000 8450 6350 8450
Connection ~ 5100 8450
Wire Wire Line
	5100 8450 5400 8450
Wire Wire Line
	4150 8450 5100 8450
Wire Wire Line
	6350 8450 6350 8750
Connection ~ 6350 8450
Wire Wire Line
	6350 8450 7250 8450
Wire Notes Line
	4800 9350 4800 8100
Wire Notes Line
	4800 8100 6800 8100
Wire Notes Line
	6800 8100 6800 9350
Wire Notes Line
	4800 9350 6800 9350
Wire Wire Line
	5700 6900 5700 7200
Wire Wire Line
	6000 6600 6250 6600
Connection ~ 5200 6600
Wire Wire Line
	5200 6600 5400 6600
Wire Wire Line
	4150 6600 5200 6600
Wire Wire Line
	6250 6600 6250 6900
Connection ~ 6250 6600
Wire Wire Line
	6250 6600 7250 6600
Wire Notes Line
	4800 7450 6800 7450
Wire Notes Line
	6800 7450 6800 6250
Wire Notes Line
	6800 6250 4800 6250
Wire Notes Line
	4800 6250 4800 7450
$EndSCHEMATC
